tipe_barang,parent_id,no_barang,status,tipe_persedian,keterangan,harga_standar_def,kuantitas,harga_jual,unit,harga_modal,gudang_id,kategori_produk_id,pemasok,min_jumlah_reorder,kode_pajak_perse_id,catatan,deleted_at,diskon,created_at,updated_at
0,,8999910000000,1,1,FLUCYL 4TAB,0,8,11000,PCS,10000,6,12,,,,FLUCYL 4TAB,,,2/28/2018 6:04,2/28/2018 6:04
0,,8999910000000,1,1,FLUCYL SIRUP 60 ML,0,3,12000,PCS,11000,6,12,,,,FLUCYL SIRUP 60 ML,,,2/28/2018 6:04,2/28/2018 6:04
